{
    "app-id": "space.tjo.dayzlauncher.Devel",
    "runtime": "org.gnome.Platform",
    "runtime-version": "41",
    "sdk": "org.gnome.Sdk",
    "sdk-extensions": ["org.freedesktop.Sdk.Extension.rust-stable"],
    "command": "dayzlauncher",
    "finish-args": [
        "--socket=fallback-x11",
        "--socket=wayland",
        "--device=dri",
        "--talk-name=org.a11y.Bus",
        "--env=RUST_LOG=dayzlauncher=debug",
        "--env=G_MESSAGES_DEBUG=none",
        "--env=RUST_BACKTRACE=1"
    ],
    "build-options": {
        "append-path": "/usr/lib/sdk/rust-stable/bin",
        "build-args": ["--share=network"],
        "test-args": ["--socket=x11", "--share=network"],
        "env": {}
    },
    "modules": [
        {
            "name": "libadwaita",
            "buildsystem": "meson",
            "config-opts": ["-Dexamples=false", "-Dtests=false"],
            "sources": [
                {
                    "type": "git",
                    "url": "https://gitlab.gnome.org/GNOME/libadwaita.git",
                    "branch": "1.0.0.alpha.4"
                }
            ],
            "modules": [
                {
                    "name": "libsass",
                    "buildsystem": "meson",
                    "sources": [
                        {
                            "type": "git",
                            "url": "https://github.com/lazka/libsass.git",
                            "branch": "meson"
                        }
                    ]
                },
                {
                    "name": "sassc",
                    "buildsystem": "meson",
                    "sources": [
                        {
                            "type": "git",
                            "url": "https://github.com/lazka/sassc.git",
                            "branch": "meson"
                        }
                    ]
                }
            ]
        },
        {
            "name": "dayzlauncher",
            "buildsystem": "meson",
            "run-tests": true,
            "config-opts": ["-Dprofile=development"],
            "sources": [
                {
                    "type": "dir",
                    "path": "../"
                }
            ]
        }
    ]
}
